<?xml version="1.0" encoding="iso-8859-1"?>
<svg version="1.1" xmlns="http://www.w3.org/2000/svg" xmlns:xlink="http://www.w3.org/1999/xlink" x="0px" y="0px" viewBox="0 0 14 14" xml:space="preserve">
    <g>
        <path fill="rgba(255, 255, 255, 0.96)" d="M7,9L5.268,7.484l-4.952,4.245C0.496,11.896,0.739,12,1.007,12h11.986c0.267,0,0.509-0.104,0.688-0.271L8.732,7.484L7,9z"/>
        <path fill="rgba(255, 255, 255, 1)" d="M13.684,2.271C13.504,2.103,13.262,2,12.993,2H1.007C0.74,2,0.498,2.104,0.318,2.273L7,8L13.684,2.271z"/>
        <polygon fill="rgba(255, 255, 255, 0.93)" points="0,2.878 0,11.186 4.833,7.079"/>
        <polygon fill="rgba(255, 255, 255, 0.93)" points="9.167,7.079 14,11.186 14,2.875"/>
    </g>
</svg>
